The Brazilian Debt - A Hugo website
…
 # for latter plot
debt_brazil <- debt %>%
     filter(country == 'Brazil')

end_time <- Sys.time()

(end_time - start_time)

## Time difference of 8.177923 secs

Not too slow. The output already classify the country column as a factor so can fit more easily with ggplot2.

debt

## # A tibble: 252 x 3
##    date       value country  
##    <date>     <dbl> <fct>    
##  1 2000-12-31  42.1 Argentina
##  2 2001-12-31  49.4 Argentina
##  3 2002-12-31 152.  Argentina
##  4 2003-12-31 129.  Argentina
##  5 2004-12-31 117.  Argentina
##  6 2005-12-31  66.9 Argentina
##  7 2006-12-31  58.6 Argentina
##  8 2007-12-31  50.8 Argentina
##  9 2008-12-31  43.9 Argentina
## 10 2009-12-31  53.8 Argentina
## # ... with 242 more rows
…
