How many stocks in the S&P 500 do follow a random-walk? - A Hugo website
…
}

I’ve used a function inside another function because I believe that this is one of the biggest assets of working with R: great chunks of code can be decomposed in small pieces and then grouped together latter on to solve the bigger picture. Specially important is the use of possibly() that “guarantees” that the main script will run. If any error occurs, we get NA as an answer, but the code still runs.

tickers <- get_sp500_tickers()

tickers

## # A tibble: 505 x 9
##    ticker_symbol security sec_filings gics_sector gics_sub_indust~ Location
##    <chr>         <chr>    <chr>       <chr>       <chr>            <chr>   
##  1 MMM           3M Comp~ reports     Industrials Industrial Cong~ St. Pau~
##  2 ABT           Abbott ~ reports     Health Care Health Care Equ~ North C~
##  3 ABBV          AbbVie ~ reports     Health Care Pharmaceuticals  North C~
##  4 ABMD          ABIOMED~ reports     Health Care Health Care Equ~ Danvers~
##  5 ACN           Accentu~ reports     Informatio~ IT Consulting &~ Dublin,~
##  6 ATVI          Activis~ reports     Informatio~ Home Entertainm~ Santa M~
##  7 ADBE          Adobe S~ reports     Informatio~ Application Sof~ San Jos~
##  8 AMD           Advance~ reports     Informatio~ Semiconductors   Sunnyva~
##  9 AAP           Advance~ reports     Consumer D~ Automotive Reta~ Roanoke~
## 10 AES           AES Corp reports     Utilities   Independent Pow~ Arlingt~
## # ... with 495 more rows, and 3 more variables: `Date first
## #   added[3][4]` <chr>, CIK <int>, Founded <chr>
…
    # calculate returns
    dplyr::group_by(ticker_symbol) %>% 
    tidyquant::tq_mutate(
        select     = prices, 
        mutate_fun = periodReturn,
        col_rename = 'returns',
        period     = 'monthly',
        type       = 'log'
        ) %>% 
    dplyr::ungroup()

stocks

## # A tibble: 52,185 x 7
##    ticker_symbol Date       security gics_sector gics_sub_indust~ prices
##    <chr>         <date>     <chr>    <chr>       <chr>             <dbl>
##  1 MMM           2009-01-31 3M Comp~ Industrials Industrial Cong~   42.8
##  2 MMM           2009-02-28 3M Comp~ Industrials Industrial Cong~   36.6
##  3 MMM           2009-03-31 3M Comp~ Industrials Industrial Cong~   40.0
##  4 MMM           2009-04-30 3M Comp~ Industrials Industrial Cong~   46.4
##  5 MMM           2009-05-31 3M Comp~ Industrials Industrial Cong~   46.4
##  6 MMM           2009-06-30 3M Comp~ Industrials Industrial Cong~   48.8
##  7 MMM           2009-07-31 3M Comp~ Industrials Industrial Cong~   57.3
##  8 MMM           2009-08-31 3M Comp~ Industrials Industrial Cong~   59.0
##  9 MMM           2009-09-30 3M Comp~ Industrials Industrial Cong~   60.4
## 10 MMM           2009-10-31 3M Comp~ Industrials Industrial Cong~   60.2
## # ... with 52,175 more rows, and 1 more variable: returns <dbl>
…
stocks_to_ts <- stocks %>% 
    dplyr::group_by(ticker_symbol, 
                    security, 
                    gics_sector, 
                    gics_sub_industry
                    ) %>% 
    tidyr::nest(Date, returns) %>% 
    dplyr::mutate(ts = map(
        .x        = data, 
        .f        = timetk::tk_ts,
        start     = 2009,
        frequency = 12)) %>% 
    dplyr::ungroup()

## # A tibble: 501 x 6
##    ticker_symbol security   gics_sector   gics_sub_industry   data   ts   
##    <chr>         <chr>      <chr>         <chr>               <list> <lis>
##  1 MMM           3M Company Industrials   Industrial Conglom~ <tibb~ <S3:~
##  2 ABT           Abbott La~ Health Care   Health Care Equipm~ <tibb~ <S3:~
##  3 ABBV          AbbVie In~ Health Care   Pharmaceuticals     <tibb~ <S3:~
##  4 ABMD          ABIOMED I~ Health Care   Health Care Equipm~ <tibb~ <S3:~
##  5 ACN           Accenture~ Information ~ IT Consulting & Ot~ <tibb~ <S3:~
##  6 ATVI          Activisio~ Information ~ Home Entertainment~ <tibb~ <S3:~
##  7 ADBE          Adobe Sys~ Information ~ Application Softwa~ <tibb~ <S3:~
##  8 AMD           Advanced ~ Information ~ Semiconductors      <tibb~ <S3:~
##  9 AAP           Advance A~ Consumer Dis~ Automotive Retail   <tibb~ <S3:~
## 10 AES           AES Corp   Utilities     Independent Power ~ <tibb~ <S3:~
## # ... with 491 more rows
…
stocks_to_ts_modeling

In the last two lines of the printed tibble we see that the stocks_to_ts_modeling object now has all the standard evaluation metrics, like AIC, BIC, ME, RMSE, MAE, MAPE, MASE, ACF1. Not for one stock, but for all of them. The tidyverse is power!

## # A tibble: 501 x 19
##    ticker_symbol security gics_sector gics_sub_indust~ data  ts    model
##    <chr>         <chr>    <chr>       <chr>            <lis> <lis> <lis>
##  1 MMM           3M Comp~ Industrials Industrial Cong~ <tib~ <S3:~ <S3:~
##  2 ABT           Abbott ~ Health Care Health Care Equ~ <tib~ <S3:~ <S3:~
##  3 ABBV          AbbVie ~ Health Care Pharmaceuticals  <tib~ <S3:~ <S3:~
##  4 ABMD          ABIOMED~ Health Care Health Care Equ~ <tib~ <S3:~ <S3:~
##  5 ACN           Accentu~ Informatio~ IT Consulting &~ <tib~ <S3:~ <S3:~
##  6 ATVI          Activis~ Informatio~ Home Entertainm~ <tib~ <S3:~ <S3:~
##  7 ADBE          Adobe S~ Informatio~ Application Sof~ <tib~ <S3:~ <S3:~
##  8 AMD           Advance~ Informatio~ Semiconductors   <tib~ <S3:~ <S3:~
##  9 AAP           Advance~ Consumer D~ Automotive Reta~ <tib~ <S3:~ <S3:~
## 10 AES           AES Corp Utilities   Independent Pow~ <tib~ <S3:~ <S3:~
## # ... with 491 more rows, and 12 more variables: model.desc <chr>,
## #   sigma <dbl>, logLik <dbl>, AIC <dbl>, BIC <dbl>, ME <dbl>, RMSE <dbl>,
## #   MAE <dbl>, MPE <dbl>, MAPE <dbl>, MASE <dbl>, ACF1 <dbl>
…
