…
possibly(), from purrr, “guarantees” the main script will run. If any error occurs, we get a NA, but the code still runs. A safe bet for loops with dozens of elements like this one.

tickers <- get_sp500_tickers()
tickers

## # A tibble: 505 x 9
##    ticker_symbol security   sec_filings gics_sector  gics_sub_industry Location 
##    <chr>         <chr>      <chr>       <chr>        <chr>             <chr>    
##  1 MMM           3M Company reports     Industrials  Industrial Congl~ St. Paul~
##  2 ABT           Abbott La~ reports     Health Care  Health Care Equi~ North Ch~
##  3 ABBV          AbbVie In~ reports     Health Care  Pharmaceuticals   North Ch~
##  4 ABMD          ABIOMED I~ reports     Health Care  Health Care Equi~ Danvers,~
##  5 ACN           Accenture~ reports     Information~ IT Consulting & ~ Dublin, ~
##  6 ATVI          Activisio~ reports     Information~ Home Entertainme~ Santa Mo~
##  7 ADBE          Adobe Sys~ reports     Information~ Application Soft~ San Jose~
##  8 AMD           Advanced ~ reports     Information~ Semiconductors    Sunnyval~
##  9 AAP           Advance A~ reports     Consumer Di~ Automotive Retail Roanoke,~
## 10 AES           AES Corp   reports     Utilities    Independent Powe~ Arlingto~
## # ... with 495 more rows, and 3 more variables: Date first added[3][4] <chr>,
## #   CIK <int>, Founded <chr>
…
                  prices
                  ) %>% 
    # calculate returns
    dplyr::group_by(ticker_symbol) %>% 
    tidyquant::tq_mutate(
        select     = prices, 
        mutate_fun = periodReturn,
        col_rename = 'returns',
        period     = 'monthly',
        type       = 'log'
        ) %>% 
    dplyr::ungroup()
stocks

## # A tibble: 52,185 x 7
##    ticker_symbol Date       security   gics_sector gics_sub_industry      prices
##    <chr>         <date>     <chr>      <chr>       <chr>                   <dbl>
##  1 MMM           2009-01-31 3M Company Industrials Industrial Conglomera~   42.8
##  2 MMM           2009-02-28 3M Company Industrials Industrial Conglomera~   36.6
##  3 MMM           2009-03-31 3M Company Industrials Industrial Conglomera~   40.0
##  4 MMM           2009-04-30 3M Company Industrials Industrial Conglomera~   46.4
##  5 MMM           2009-05-31 3M Company Industrials Industrial Conglomera~   46.4
##  6 MMM           2009-06-30 3M Company Industrials Industrial Conglomera~   48.8
##  7 MMM           2009-07-31 3M Company Industrials Industrial Conglomera~   57.3
##  8 MMM           2009-08-31 3M Company Industrials Industrial Conglomera~   59.0
##  9 MMM           2009-09-30 3M Company Industrials Industrial Conglomera~   60.4
## 10 MMM           2009-10-31 3M Company Industrials Industrial Conglomera~   60.2
## # ... with 52,175 more rows, and 1 more variable: returns <dbl>
…
stocks_to_ts <- stocks %>% 
    dplyr::group_by(ticker_symbol, 
                    security, 
                    gics_sector, 
                    gics_sub_industry
                    ) %>% 
    tidyr::nest(Date, returns) %>% 
    dplyr::mutate(ts = map(
        .x        = data, 
        .f        = timetk::tk_ts,
        start     = 2009,
        frequency = 12)) %>% 
    dplyr::ungroup()

## # A tibble: 501 x 6
##    ticker_symbol security    gics_sector   gics_sub_industry     data    ts     
##    <chr>         <chr>       <chr>         <chr>                 <list>  <list> 
##  1 MMM           3M Company  Industrials   Industrial Conglomer~ <tibbl~ <ts[,1~
##  2 ABT           Abbott Lab~ Health Care   Health Care Equipment <tibbl~ <ts[,1~
##  3 ABBV          AbbVie Inc. Health Care   Pharmaceuticals       <tibbl~ <ts[,1~
##  4 ABMD          ABIOMED Inc Health Care   Health Care Equipment <tibbl~ <ts[,1~
##  5 ACN           Accenture ~ Information ~ IT Consulting & Othe~ <tibbl~ <ts[,1~
##  6 ATVI          Activision~ Information ~ Home Entertainment S~ <tibbl~ <ts[,1~
##  7 ADBE          Adobe Syst~ Information ~ Application Software  <tibbl~ <ts[,1~
##  8 AMD           Advanced M~ Information ~ Semiconductors        <tibbl~ <ts[,1~
##  9 AAP           Advance Au~ Consumer Dis~ Automotive Retail     <tibbl~ <ts[,1~
## 10 AES           AES Corp    Utilities     Independent Power Pr~ <tibbl~ <ts[,1~
## # ... with 491 more rows
…
The stocks_to_ts_modeling object have standard evaluation metrics, like AIC, BIC, ME, RMSE, MAE, MAPE, MASE, ACF1. Not for one stock, but for all in the S&P 500 index!

## # A tibble: 501 x 19
##    ticker_symbol security   gics_sector  gics_sub_industry   data   ts     model
##    <chr>         <chr>      <chr>        <chr>               <list> <list> <lis>
##  1 MMM           3M Company Industrials  Industrial Conglom~ <tibb~ <ts[,~ <ARI~
##  2 ABT           Abbott La~ Health Care  Health Care Equipm~ <tibb~ <ts[,~ <ARI~
##  3 ABBV          AbbVie In~ Health Care  Pharmaceuticals     <tibb~ <ts[,~ <ARI~
##  4 ABMD          ABIOMED I~ Health Care  Health Care Equipm~ <tibb~ <ts[,~ <ARI~
##  5 ACN           Accenture~ Information~ IT Consulting & Ot~ <tibb~ <ts[,~ <ARI~
##  6 ATVI          Activisio~ Information~ Home Entertainment~ <tibb~ <ts[,~ <ARI~
##  7 ADBE          Adobe Sys~ Information~ Application Softwa~ <tibb~ <ts[,~ <ARI~
##  8 AMD           Advanced ~ Information~ Semiconductors      <tibb~ <ts[,~ <ARI~
##  9 AAP           Advance A~ Consumer Di~ Automotive Retail   <tibb~ <ts[,~ <ARI~
## 10 AES           AES Corp   Utilities    Independent Power ~ <tibb~ <ts[,~ <ARI~
## # ... with 491 more rows, and 12 more variables: model.desc <chr>, sigma <dbl>,
## #   logLik <dbl>, AIC <dbl>, BIC <dbl>, ME <dbl>, RMSE <dbl>, MAE <dbl>,
## #   MPE <dbl>, MAPE <dbl>, MASE <dbl>, ACF1 <dbl>
…
