…
    # calculate returns
    dplyr::group_by(ticker_symbol) %>% 
    tidyquant::tq_mutate(
        select     = prices, 
        mutate_fun = periodReturn,
        col_rename = 'returns',
        period     = 'daily',
        type       = 'log'
    ) %>% 
    dplyr::ungroup()

stocks

## # A tibble: 2,031,982 x 4
##    ticker_symbol Date       prices  returns
##    <chr>         <date>      <dbl>    <dbl>
##  1 MMM           2000-01-03   30.8  0      
##  2 MMM           2000-01-04   29.6 -0.0405 
##  3 MMM           2000-01-05   31.1  0.0497 
##  4 MMM           2000-01-06   32.9  0.0566 
##  5 MMM           2000-01-07   33.5  0.0196 
##  6 MMM           2000-01-10   33.4 -0.00488
##  7 MMM           2000-01-11   32.8 -0.0178 
##  8 MMM           2000-01-12   32.9  0.00298
##  9 MMM           2000-01-13   32.9  0      
## 10 MMM           2000-01-14   32.4 -0.0149 
## # ... with 2,031,972 more rows

This code is almost identical to the one I had used in my previous post. If you want to see a detailed explanation on how it works, please, feel free to so by clicking here.

The stocks tibble is composed of a daily database from 2000 onwards. Note, however, that many of the stocks have only a few number of observations.

stocks %>%
    dplyr::select(Date, ticker_symbol, returns) %>% 
    dplyr::group_by(ticker_symbol) %>% 
    dplyr::summarise(
        n          = dplyr::n(), 
        first_date = min(Date)
    ) %>% 
    dplyr::arrange(dplyr::desc(first_date))

## # A tibble: 500 x 3
##    ticker_symbol     n first_date
##    <chr>         <int> <date>    
##  1 CBRE              4 2018-03-22
##  2 BKNG             14 2018-03-08
##  3 WELL             14 2018-03-08
##  4 APTV             74 2017-12-08
##  5 IQV              90 2017-11-15
##  6 TPR             100 2017-10-31
##  7 DWDP            141 2017-09-01
##  8 BHF             159 2017-08-08
##  9 ANDV            162 2017-08-03
## 10 BHGE            181 2017-07-06
## # ... with 490 more rows
…
    # manipulate
    dplyr::group_by(ticker_symbol) %>% 
    dplyr::mutate(n = dplyr::n()) %>% 
    dplyr::filter(n > 4000) %>% 
    dplyr::select(-n) %>% 
    dplyr::ungroup() %>% 
    
    # spread the data
    tidyr::spread(ticker_symbol, returns) %>% 
    tidyr::drop_na()

stocks_filtered

## # A tibble: 4,015 x 406
##    Date              A      AAP     AAPL      ABC     ABMD      ABT
##    <date>        <dbl>    <dbl>    <dbl>    <dbl>    <dbl>    <dbl>
##  1 2001-12-13 -0.0740  -0.00950 -0.0231   5.53e-3 -0.0692   0.00282
##  2 2001-12-14  0.0108  -0.0244  -0.0295   2.45e-2 -0.0242   0.0225 
##  3 2001-12-17  0.00277  0.00269  0.0112  -9.63e-3  0       -0.00738
##  4 2001-12-18 -0.00312  0        0.0187   2.12e-2 -0.00779 -0.00278
##  5 2001-12-19 -0.00941  0.00122  0.0286   2.56e-2 -0.0380   0.0179 
##  6 2001-12-20 -0.0302   0.0300  -0.0449  -3.24e-4 -0.0447   0.0141 
##  7 2001-12-21  0.00898  0.0694   0.0158   1.46e-2  0.0447   0.0176 
##  8 2001-12-24  0.0198   0.0101   0.0170   9.70e-3  0.0247  -0.00230
##  9 2001-12-26 -0.0145   0.00436  0.00607  5.21e-3  0.00910  0.00548
## 10 2001-12-27  0.0260   0.0204   0.0266  -8.85e-3 -0.0214  -0.00477
## # ... with 4,005 more rows, and 399 more variables: ACN <dbl>, ADBE <dbl>,
## #   ADI <dbl>, ADM <dbl>, ADP <dbl>, ADS <dbl>, ADSK <dbl>, AEE <dbl>,
## #   AEP <dbl>, AES <dbl>, AET <dbl>, AFL <dbl>, AGN <dbl>, AIG <dbl>,
## #   AIV <dbl>, AJG <dbl>, AKAM <dbl>, ALB <dbl>, ALGN <dbl>, ALK <dbl>,
## #   ALL <dbl>, ALXN <dbl>, AMAT <dbl>, AMD <dbl>, AME <dbl>, AMG <dbl>,
## #   AMGN <dbl>, AMT <dbl>, AMZN <dbl>, ANSS <dbl>, ANTM <dbl>, AON <dbl>,
## #   AOS <dbl>, APA <dbl>, APC <dbl>, APD <dbl>, APH <dbl>, ARE <dbl>,
## #   ARNC <dbl>, ATVI <dbl>, AVB <dbl>, AVY <dbl>, AXP <dbl>, AZO <dbl>,
## #   BA <dbl>, BAC <dbl>, BAX <dbl>, BBT <dbl>, BBY <dbl>, BDX <dbl>,
…
