…
Suppose now that we would like to do this operation on a rolling-basis. It’s possible to use optimize.portfolio.rebalancing(), but we would be outside the tidy-world. Instead, let’s go tidy with full-power.

opt_port_rolling <- edhec_updated %>% 
    rolling_origin(data        = ., 
                   initial     = 60, 
                   skip        = 0,
                   assess      = 1, 
                   cummulative = TRUE
)

opt_port_rolling

## # Rolling origin forecast resampling 
## # A tibble: 204 x 2
##    splits         id      
##    <list>         <chr>   
##  1 <split [60/1]> Slice001
##  2 <split [61/1]> Slice002
##  3 <split [62/1]> Slice003
##  4 <split [63/1]> Slice004
##  5 <split [64/1]> Slice005
##  6 <split [65/1]> Slice006
##  7 <split [66/1]> Slice007
##  8 <split [67/1]> Slice008
##  9 <split [68/1]> Slice009
## 10 <split [69/1]> Slice010
## # ... with 194 more rows
…
map_opt_port_rolling

## # Rolling origin forecast resampling 
## # A tibble: 204 x 3
##    splits         id       optimizations               
##  * <list>         <chr>    <list>                      
##  1 <split [60/1]> Slice001 <S3: optimize.portfolio.ROI>
##  2 <split [61/1]> Slice002 <S3: optimize.portfolio.ROI>
##  3 <split [62/1]> Slice003 <S3: optimize.portfolio.ROI>
##  4 <split [63/1]> Slice004 <S3: optimize.portfolio.ROI>
##  5 <split [64/1]> Slice005 <S3: optimize.portfolio.ROI>
##  6 <split [65/1]> Slice006 <S3: optimize.portfolio.ROI>
##  7 <split [66/1]> Slice007 <S3: optimize.portfolio.ROI>
##  8 <split [67/1]> Slice008 <S3: optimize.portfolio.ROI>
##  9 <split [68/1]> Slice009 <S3: optimize.portfolio.ROI>
## 10 <split [69/1]> Slice010 <S3: optimize.portfolio.ROI>
## # ... with 194 more rows
…
Notice that in period 2 the algorithm have not found a solution. There are ways to circumvent this problem inside the tidyverse. My preferred ones is by using purrr’s adverbs: safely(), quietly(), possibly() and insistently(). I’m not going to do that here, however, because the main objective is how to use the PortfolioAnalytics in the tidyverse, not to solve every possible bug.

To extract the weights, returns and the standard-deviation let’s continue mapping.

map_opt_port_rolling %>% 
    mutate(weights = map(.x = optimizations, .f = ~ .x$weights), 
           std_dev  = map_dbl(.x = optimizations, .f = ~ .x$objective_measures$StdDev), 
           return  = map_dbl(.x = optimizations, .f = ~ .x$objective_measures$mean), 
           sharpe_ratio = return / std_dev
           ) 

## # Rolling origin forecast resampling 
## # A tibble: 204 x 7
##    splits    id     optimizations      weights std_dev  return sharpe_ratio
##  * <list>    <chr>  <list>             <list>    <dbl>   <dbl>        <dbl>
##  1 <split [~ Slice~ <S3: optimize.por~ <dbl [~  0.0235  0.0121        0.514
##  2 <split [~ Slice~ <S3: optimize.por~ <lgl [~ NA      NA            NA    
##  3 <split [~ Slice~ <S3: optimize.por~ <dbl [~  0.0166  0.0112        0.674
##  4 <split [~ Slice~ <S3: optimize.por~ <dbl [~  0.0207  0.0114        0.549
##  5 <split [~ Slice~ <S3: optimize.por~ <lgl [~ NA      NA            NA    
##  6 <split [~ Slice~ <S3: optimize.por~ <lgl [~ NA      NA            NA    
##  7 <split [~ Slice~ <S3: optimize.por~ <dbl [~  0.0109  0.0104        0.954
##  8 <split [~ Slice~ <S3: optimize.por~ <lgl [~ NA      NA            NA    
##  9 <split [~ Slice~ <S3: optimize.por~ <lgl [~ NA      NA            NA    
## 10 <split [~ Slice~ <S3: optimize.por~ <lgl [~ NA      NA            NA    
## # ... with 194 more rows
…
